…
# Load data from a CSV file sitting in a CDN
d_conn.execute("create table results as select * from read_csv('https://assets.jakthom.dev/zero-infrastructure-lake/survey-results.csv.gz');")
```

The resulting table looks like this (using DuckDB cli):

```
D desc results;
┌──────────────────────┬─────────────┬─────────┬─────────┬─────────┬─────────┐
│     column_name      │ column_type │  null   │   key   │ default │  extra  │
│       varchar        │   varchar   │ varchar │ varchar │ varchar │ varchar │
├──────────────────────┼─────────────┼─────────┼─────────┼─────────┼─────────┤
│ responseid           │ BIGINT      │ YES     │ NULL    │ NULL    │ NULL    │
│ mainbranch           │ VARCHAR     │ YES     │ NULL    │ NULL    │ NULL    │
│ age                  │ VARCHAR     │ YES     │ NULL    │ NULL    │ NULL    │
│ employment           │ VARCHAR     │ YES     │ NULL    │ NULL    │ NULL    │
│ remotework           │ VARCHAR     │ YES     │ NULL    │ NULL    │ NULL    │
│ check                │ VARCHAR     │ YES     │ NULL    │ NULL    │ NULL    │
│ codingactivities     │ VARCHAR     │ YES     │ NULL    │ NULL    │ NULL    │
│ edlevel              │ VARCHAR     │ YES     │ NULL    │ NULL    │ NULL    │
│ learncode            │ VARCHAR     │ YES     │ NULL    │ NULL    │ NULL    │
│ learncodeonline      │ VARCHAR     │ YES     │ NULL    │ NULL    │ NULL    │
│ techdoc              │ VARCHAR     │ YES     │ NULL    │ NULL    │ NULL    │
│ yearscode            │ VARCHAR     │ YES     │ NULL    │ NULL    │ NULL    │
│ yearscodepro         │ VARCHAR     │ YES     │ NULL    │ NULL    │ NULL    │
│ devtype              │ VARCHAR     │ YES     │ NULL    │ NULL    │ NULL    │
│ orgsize              │ VARCHAR     │ YES     │ NULL    │ NULL    │ NULL    │
│ purchaseinfluence    │ VARCHAR     │ YES     │ NULL    │ NULL    │ NULL    │
│ buynewtool           │ VARCHAR     │ YES     │ NULL    │ NULL    │ NULL    │
│ buildvsbuy           │ VARCHAR     │ YES     │ NULL    │ NULL    │ NULL    │
│ techendorse          │ VARCHAR     │ YES     │ NULL    │ NULL    │ NULL    │
│ country              │ VARCHAR     │ YES     │ NULL    │ NULL    │ NULL    │
│    ·                 │    ·        │  ·      │  ·      │  ·      │  ·      │
│    ·                 │    ·        │  ·      │  ·      │  ·      │  ·      │
│    ·                 │    ·        │  ·      │  ·      │  ·      │  ·      │
│ timesearching        │ VARCHAR     │ YES     │ NULL    │ NULL    │ NULL    │
│ timeanswering        │ VARCHAR     │ YES     │ NULL    │ NULL    │ NULL    │
│ frustration          │ VARCHAR     │ YES     │ NULL    │ NULL    │ NULL    │
│ professionaltech     │ VARCHAR     │ YES     │ NULL    │ NULL    │ NULL    │
│ professionalcloud    │ VARCHAR     │ YES     │ NULL    │ NULL    │ NULL    │
│ professionalquestion │ VARCHAR     │ YES     │ NULL    │ NULL    │ NULL    │
│ industry             │ VARCHAR     │ YES     │ NULL    │ NULL    │ NULL    │
│ jobsatpoints_1       │ VARCHAR     │ YES     │ NULL    │ NULL    │ NULL    │
│ jobsatpoints_4       │ VARCHAR     │ YES     │ NULL    │ NULL    │ NULL    │
│ jobsatpoints_5       │ VARCHAR     │ YES     │ NULL    │ NULL    │ NULL    │
│ jobsatpoints_6       │ VARCHAR     │ YES     │ NULL    │ NULL    │ NULL    │
│ jobsatpoints_7       │ VARCHAR     │ YES     │ NULL    │ NULL    │ NULL    │
│ jobsatpoints_8       │ VARCHAR     │ YES     │ NULL    │ NULL    │ NULL    │
│ jobsatpoints_9       │ VARCHAR     │ YES     │ NULL    │ NULL    │ NULL    │
│ jobsatpoints_10      │ VARCHAR     │ YES     │ NULL    │ NULL    │ NULL    │
│ jobsatpoints_11      │ VARCHAR     │ YES     │ NULL    │ NULL    │ NULL    │
│ surveylength         │ VARCHAR     │ YES     │ NULL    │ NULL    │ NULL    │
│ surveyease           │ VARCHAR     │ YES     │ NULL    │ NULL    │ NULL    │
│ convertedcompyearly  │ VARCHAR     │ YES     │ NULL    │ NULL    │ NULL    │
│ jobsat               │ VARCHAR     │ YES     │ NULL    │ NULL    │ NULL    │
├──────────────────────┴─────────────┴─────────┴─────────┴─────────┴─────────┤
│ 114 rows (40 shown)                                              6 columns │
└────────────────────────────────────────────────────────────────────────────┘
```
…
Once the catalog has been attached, it is ready to use.

**Set the search path and check the table out:**

```sql
D use jakes_lake.stack_overflow;
D show tables;
┌────────────────┐
│      name      │
│    varchar     │
├────────────────┤
│ survey_results │
└────────────────┘
D desc table survey_results;
┌──────────────────────┬─────────────┬─────────┬─────────┬─────────┬─────────┐
│     column_name      │ column_type │  null   │   key   │ default │  extra  │
│       varchar        │   varchar   │ varchar │ varchar │ varchar │ varchar │
├──────────────────────┼─────────────┼─────────┼─────────┼─────────┼─────────┤
│ responseid           │ BIGINT      │ YES     │ NULL    │ NULL    │ NULL    │
│ mainbranch           │ VARCHAR     │ YES     │ NULL    │ NULL    │ NULL    │
│ age                  │ VARCHAR     │ YES     │ NULL    │ NULL    │ NULL    │
│ employment           │ VARCHAR     │ YES     │ NULL    │ NULL    │ NULL    │
│ remotework           │ VARCHAR     │ YES     │ NULL    │ NULL    │ NULL    │
│ check                │ VARCHAR     │ YES     │ NULL    │ NULL    │ NULL    │
│ codingactivities     │ VARCHAR     │ YES     │ NULL    │ NULL    │ NULL    │
│ edlevel              │ VARCHAR     │ YES     │ NULL    │ NULL    │ NULL    │
│ learncode            │ VARCHAR     │ YES     │ NULL    │ NULL    │ NULL    │
│ learncodeonline      │ VARCHAR     │ YES     │ NULL    │ NULL    │ NULL    │
│ techdoc              │ VARCHAR     │ YES     │ NULL    │ NULL    │ NULL    │
│ yearscode            │ VARCHAR     │ YES     │ NULL    │ NULL    │ NULL    │
│ yearscodepro         │ VARCHAR     │ YES     │ NULL    │ NULL    │ NULL    │
│ devtype              │ VARCHAR     │ YES     │ NULL    │ NULL    │ NULL    │
│ orgsize              │ VARCHAR     │ YES     │ NULL    │ NULL    │ NULL    │
│ purchaseinfluence    │ VARCHAR     │ YES     │ NULL    │ NULL    │ NULL    │
│ buynewtool           │ VARCHAR     │ YES     │ NULL    │ NULL    │ NULL    │
│ buildvsbuy           │ VARCHAR     │ YES     │ NULL    │ NULL    │ NULL    │
│ techendorse          │ VARCHAR     │ YES     │ NULL    │ NULL    │ NULL    │
│ country              │ VARCHAR     │ YES     │ NULL    │ NULL    │ NULL    │
│    ·                 │    ·        │  ·      │  ·      │  ·      │  ·      │
│    ·                 │    ·        │  ·      │  ·      │  ·      │  ·      │
│    ·                 │    ·        │  ·      │  ·      │  ·      │  ·      │
│ timesearching        │ VARCHAR     │ YES     │ NULL    │ NULL    │ NULL    │
│ timeanswering        │ VARCHAR     │ YES     │ NULL    │ NULL    │ NULL    │
│ frustration          │ VARCHAR     │ YES     │ NULL    │ NULL    │ NULL    │
│ professionaltech     │ VARCHAR     │ YES     │ NULL    │ NULL    │ NULL    │
│ professionalcloud    │ VARCHAR     │ YES     │ NULL    │ NULL    │ NULL    │
│ professionalquestion │ VARCHAR     │ YES     │ NULL    │ NULL    │ NULL    │
│ industry             │ VARCHAR     │ YES     │ NULL    │ NULL    │ NULL    │
│ jobsatpoints_1       │ VARCHAR     │ YES     │ NULL    │ NULL    │ NULL    │
│ jobsatpoints_4       │ VARCHAR     │ YES     │ NULL    │ NULL    │ NULL    │
│ jobsatpoints_5       │ VARCHAR     │ YES     │ NULL    │ NULL    │ NULL    │
│ jobsatpoints_6       │ VARCHAR     │ YES     │ NULL    │ NULL    │ NULL    │
│ jobsatpoints_7       │ VARCHAR     │ YES     │ NULL    │ NULL    │ NULL    │
│ jobsatpoints_8       │ VARCHAR     │ YES     │ NULL    │ NULL    │ NULL    │
│ jobsatpoints_9       │ VARCHAR     │ YES     │ NULL    │ NULL    │ NULL    │
│ jobsatpoints_10      │ VARCHAR     │ YES     │ NULL    │ NULL    │ NULL    │
│ jobsatpoints_11      │ VARCHAR     │ YES     │ NULL    │ NULL    │ NULL    │
│ surveylength         │ VARCHAR     │ YES     │ NULL    │ NULL    │ NULL    │
│ surveyease           │ VARCHAR     │ YES     │ NULL    │ NULL    │ NULL    │
│ convertedcompyearly  │ VARCHAR     │ YES     │ NULL    │ NULL    │ NULL    │
│ jobsat               │ VARCHAR     │ YES     │ NULL    │ NULL    │ NULL    │
├──────────────────────┴─────────────┴─────────┴─────────┴─────────┴─────────┤
│ 114 rows (40 shown)                                              6 columns │
└────────────────────────────────────────────────────────────────────────────┘
```
…
